Intro to R
…
- Let's try renaming a variable in our data

```r
#Without saving

data %>% rename(testing123 = tutoring)
```

```
## # A tibble: 888 x 6
##    StudentID   int expect testing123 fall_adv spr_adv
##        <dbl> <dbl>  <dbl>      <dbl>    <dbl>   <dbl>
##  1       132 0.710 0.600           0        3       2
##  2       388 0.282 0.334           0        3       2
##  3       810 0.872 0.697           0        7       7
##  4       498 0.141 0.191           1        8       1
##  5       772 0.432 0.0666          0        7       3
##  6       381 0.312 0.625           1        2       1
##  7       116 0.370 0.723           1        3       6
##  8        51 0.530 0.531           1        5       3
##  9       458 0.925 0.978           1        8       7
## 10       875 0.999 0.987           0        7       1
## # ... with 878 more rows
```
…
